Project 2
…
Joining with `by = join_by(word)`

         word     n
1      police 39851
2       court 18185
3   australia 17131
4        govt 17092
5     council 16969
6         nsw 16534
7   interview 15595
8        fire 15534
9  australian 13643
10         wa 13468

# A tibble: 513,629 × 3
# Groups:   year [19]
   year  word            n
   <chr> <chr>       <int>
 1 2020  coronavirus  8383
 2 2007  police       3330
 3 2008  police       3140
 4 2005  police       2934
 5 2010  interview    2807
 6 2004  police       2767
 7 2020  covid        2713
 8 2007  govt         2670
 9 2009  police       2669
10 2008  govt         2546
# … with 513,619 more rows

# A tibble: 513,629 × 3
# Groups:   year [19]
   year  word         tf_idf
   <chr> <chr>         <dbl>
 1 2020  coronavirus 0.0772 
 2 2021  covid       0.0416 
 3 2020  covid       0.0250 
 4 2021  coronavirus 0.0124 
 5 2020  covid19     0.00492
 6 2014  nrn         0.00285
 7 2021  astrazeneca 0.00233
 8 2013  nrn         0.00232
 9 2021  omicron     0.00205
10 2021  covid19     0.00143
# … with 513,619 more rows
…
The news site publishes many more title words conveying negative sentiment than those conveying positive sentiment.

What Were the Most Common Words Each Year?

# A tibble: 95 × 3
# Groups:   year [19]
   year  word        n
   <chr> <chr>   <int>
 1 2003  police   2335
 2 2003  govt     1933
 3 2003  council  1290
 4 2003  iraq     1241
 5 2003  plan     1135
 6 2004  police   2767
 7 2004  govt     1991
 8 2004  council  1460
 9 2004  plan     1357
10 2004  iraq     1265
# … with 85 more rows
…
